C:\Users\MVentura\Documents\NetBeansProjects\Triangulos\src\main\java\com\mycompany\triangulos\TrianguloVacio.java
C:\Users\MVentura\Documents\NetBeansProjects\Triangulos\src\main\java\com\mycompany\triangulos\Triangulos.java
C:\Users\MVentura\Documents\NetBeansProjects\Triangulos\src\main\java\com\mycompany\triangulos\TrianguloLleno.java
