C:\Users\MVentura\Documents\NetBeansProjects\Ejercicio_clinica\src\main\java\com\mycompany\ejercicio_clinica\Ejercicio_clinica.java
C:\Users\MVentura\Documents\NetBeansProjects\Ejercicio_clinica\src\main\java\com\mycompany\ejercicio_clinica\Doctores.java
C:\Users\MVentura\Documents\NetBeansProjects\Ejercicio_clinica\src\main\java\com\mycompany\ejercicio_clinica\Unidades.java
C:\Users\MVentura\Documents\NetBeansProjects\Ejercicio_clinica\src\main\java\com\mycompany\ejercicio_clinica\Clinica.java
C:\Users\MVentura\Documents\NetBeansProjects\Ejercicio_clinica\src\main\java\com\mycompany\ejercicio_clinica\Pacientes.java
C:\Users\MVentura\Documents\NetBeansProjects\Ejercicio_clinica\src\main\java\com\mycompany\ejercicio_clinica\Gestion.java
