C:\Users\MVentura\Documents\NetBeansProjects\DIA7\src\main\java\com\mycompany\dia7\Activar.java
C:\Users\MVentura\Documents\NetBeansProjects\DIA7\src\main\java\com\mycompany\dia7\Pelicula.java
C:\Users\MVentura\Documents\NetBeansProjects\DIA7\src\main\java\com\mycompany\dia7\DIA7.java
C:\Users\MVentura\Documents\NetBeansProjects\DIA7\src\main\java\com\mycompany\dia7\Videojuego.java
